src/AXON/project_1/project_1.srcs/sources_1/new/counter.vcd
$date
	Tue Jan 20 12:07:54 2026
$end
$version
	Icarus Verilog
$end
$timescale
	1ps
$end
$scope module tb_counter_axon_addr_weight $end
$var wire 1 ! flag_1per16 $end
$var wire 1 " done $end
$var wire 8 # addr_out [7:0] $end
$var parameter 32 $ ADDRESS_LENGTH $end
$var parameter 32 % MAX_COUNT $end
$var reg 1 & clk $end
$var reg 1 ' en $end
$var reg 1 ( rst $end
$var reg 1 ) rst_min_16 $end
$scope module dut $end
$var wire 1 & clk $end
$var wire 1 ' en $end
$var wire 1 ( rst $end
$var wire 1 ) rst_min_16 $end
$var parameter 32 * ADDRESS_LENGTH $end
$var parameter 32 + MAX_COUNT $end
$var reg 8 , addr_out [7:0] $end
$var reg 8 - count [7:0] $end
$var reg 1 " done $end
$var reg 1 ! flag_1per16 $end
$var reg 1 . reached_end $end
$upscope $end
$upscope $end
$enddefinitions $end
$comment Show the parameter values. $end
$dumpall
b1000000 +
b1000 *
b1000000 %
b1000 $
$end
#0
$dumpvars
0.
b0 -
b0 ,
0)
0(
0'
0&
b0 #
0"
0!
$end
#5000
1&
#10000
0&
#12000
1'
1(
#15000
1&
#20000
b1 -
0&
#25000
1&
#30000
b10 -
b1 #
b1 ,
0&
#35000
1&
#40000
b11 -
b10 #
b10 ,
0&
#45000
1&
#50000
b100 -
b11 #
b11 ,
0&
#55000
1&
#60000
b101 -
b100 #
b100 ,
0&
#65000
1&
#70000
b110 -
b101 #
b101 ,
0&
#75000
1&
#80000
b111 -
b110 #
b110 ,
0&
#85000
1&
#90000
b1000 -
b111 #
b111 ,
0&
#95000
1&
#100000
b1001 -
b1000 #
b1000 ,
0&
#105000
1&
#110000
b1010 -
b1001 #
b1001 ,
0&
#115000
1&
#120000
b1011 -
b1010 #
b1010 ,
0&
#125000
1&
#130000
b1100 -
b1011 #
b1011 ,
0&
#135000
1&
#140000
b1101 -
b1100 #
b1100 ,
0&
#145000
1&
#150000
b1110 -
b1101 #
b1101 ,
0&
#155000
1&
#160000
b1111 -
b1110 #
b1110 ,
0&
#165000
1&
#170000
b10000 -
1!
b1111 #
b1111 ,
0&
#175000
1&
#180000
b0 #
b0 ,
b0 -
0!
1)
0&
#185000
1&
#190000
0)
0&
#195000
1&
#200000
b1 -
0&
#205000
1&
#210000
b10 -
b1 #
b1 ,
0&
#215000
1&
#220000
b11 -
b10 #
b10 ,
0&
#225000
1&
#230000
b100 -
b11 #
b11 ,
0&
#235000
1&
#240000
b101 -
b100 #
b100 ,
0&
#245000
1&
#250000
b110 -
b101 #
b101 ,
0&
#255000
1&
#260000
b111 -
b110 #
b110 ,
0&
#265000
1&
#270000
b1000 -
b111 #
b111 ,
0&
#275000
1&
#280000
b1001 -
b1000 #
b1000 ,
0&
#285000
1&
#290000
b1010 -
b1001 #
b1001 ,
0&
#295000
1&
#300000
b1011 -
b1010 #
b1010 ,
0&
#305000
1&
#310000
b1100 -
b1011 #
b1011 ,
0&
#315000
1&
#320000
b1101 -
b1100 #
b1100 ,
0&
#325000
1&
#330000
b1110 -
b1101 #
b1101 ,
0&
#335000
1&
#340000
b1111 -
b1110 #
b1110 ,
0&
#345000
1&
#350000
b10000 -
1!
b1111 #
b1111 ,
0&
#355000
1&
#360000
b10001 -
b10000 #
b10000 ,
0!
0&
#365000
1&
#370000
b10010 -
b10001 #
b10001 ,
0&
#375000
1&
#380000
b10011 -
b10010 #
b10010 ,
0&
#385000
1&
#390000
b10100 -
b10011 #
b10011 ,
0&
#395000
1&
#400000
b10101 -
b10100 #
b10100 ,
0&
#405000
1&
#410000
b10110 -
b10101 #
b10101 ,
0&
#415000
1&
#420000
b10111 -
b10110 #
b10110 ,
0&
#425000
1&
#430000
b11000 -
b10111 #
b10111 ,
0&
#435000
1&
#440000
b11001 -
b11000 #
b11000 ,
0&
#445000
1&
#450000
b11010 -
b11001 #
b11001 ,
0&
#455000
1&
#460000
b11011 -
b11010 #
b11010 ,
0&
#465000
1&
#470000
b11100 -
b11011 #
b11011 ,
0&
#475000
1&
#480000
b11101 -
b11100 #
b11100 ,
0&
#485000
1&
#490000
b11110 -
b11101 #
b11101 ,
0&
#495000
1&
#500000
b11111 -
b11110 #
b11110 ,
0&
#505000
1&
#510000
b100000 -
1!
b11111 #
b11111 ,
0&
#515000
1&
#520000
b100001 -
b100000 #
b100000 ,
0!
0&
#525000
1&
#530000
b100010 -
b100001 #
b100001 ,
0&
#535000
1&
#540000
b100011 -
b100010 #
b100010 ,
0&
#545000
1&
#550000
b100100 -
b100011 #
b100011 ,
0&
#555000
1&
#560000
b100101 -
b100100 #
b100100 ,
0&
#565000
1&
#570000
b100110 -
b100101 #
b100101 ,
0&
#575000
1&
#580000
b100111 -
b100110 #
b100110 ,
0&
#585000
1&
#590000
b101000 -
b100111 #
b100111 ,
0&
#595000
1&
#600000
b101001 -
b101000 #
b101000 ,
0&
#605000
1&
#610000
b101010 -
b101001 #
b101001 ,
0&
#615000
1&
#620000
b101011 -
b101010 #
b101010 ,
0&
#625000
1&
#630000
b101100 -
b101011 #
b101011 ,
0&
#635000
1&
#640000
b101101 -
b101100 #
b101100 ,
0&
#645000
1&
#650000
b101110 -
b101101 #
b101101 ,
0&
#655000
1&
#660000
b101111 -
b101110 #
b101110 ,
0&
#665000
1&
#670000
b110000 -
1!
b101111 #
b101111 ,
0&
#675000
1&
#680000
b110001 -
b110000 #
b110000 ,
0!
0&
#685000
1&
#690000
b110010 -
b110001 #
b110001 ,
0&
#695000
1&
#700000
b110011 -
b110010 #
b110010 ,
0&
#705000
1&
#710000
b110100 -
b110011 #
b110011 ,
0&
#715000
1&
#720000
b110101 -
b110100 #
b110100 ,
0&
#725000
1&
#730000
b110110 -
b110101 #
b110101 ,
0&
#735000
1&
#740000
b110111 -
b110110 #
b110110 ,
0&
#745000
1&
#750000
b111000 -
b110111 #
b110111 ,
0&
#755000
1&
#760000
b111001 -
b111000 #
b111000 ,
0&
#765000
1&
#770000
b111010 -
b111001 #
b111001 ,
0&
#775000
1&
#780000
b111011 -
b111010 #
b111010 ,
0&
#785000
1&
#790000
b111100 -
b111011 #
b111011 ,
0&
#795000
1&
#800000
b111101 -
b111100 #
b111100 ,
0&
#805000
1&
#810000
b111110 -
b111101 #
b111101 ,
0&
#815000
1&
#820000
b111111 -
b111110 #
b111110 ,
0&
#825000
1&
#830000
1.
1"
1!
b111111 #
b111111 ,
0&
#835000
1&
#840000
0!
0"
0&
