src/AXON/project_1/project_1.sim/sim_1/behav/xsim/simulate.log
Time resolution is 1 ps


========================================
  1D Convolution Testbench
========================================

>>> Test 6: Complex Scenario (64 channels, 64 filters)
    Expect 4 Weight Requests for 64 filters in batches of 16
Initializing input data: 1 channels, 512 temporal length
  Ch 0 -> BRAM 0, slot 0, addr 0-511, pattern: t=0:1, t=1:2, t=2:3
Input data initialization complete
Initializing bias (clearing output BRAM)...
Bias initialization complete (wrote 64 zeros)

=== Starting Convolution ===
Parameters:
  stride_input=2 (actual_stride=2), padding=7, kernel_size=16
  input_channels=1, temporal_length=512, filters=32
[TB] Weight Request detected at time             16395000
[TB] Loading Dynamic Weights for Request #0
[TB]   -> Filter Batch 0 (Filters 0-15)
[TB]   -> Channel Block 0 (Channels 0-63)
[TB]     DEBUG: Filter 0, Ch 0, k=0: addr=0, value=1 (to BRAM 0)
[TB]     DEBUG: Filter 0, Ch 0, k=1: addr=1, value=2 (to BRAM 0)
[TB]     DEBUG: Filter 0, Ch 0, k=2: addr=2, value=3 (to BRAM 0)
[TB]   Loaded Filter 0 -> BRAM 0, weight pattern: k=0:1, k=1:2, k=2:3, k=3:4, k=4:5
[TB]   Loaded Filter 1 -> BRAM 1, weight pattern: k=0:2, k=1:3, k=2:4, k=3:5, k=4:1
[TB]   Loaded Filter 2 -> BRAM 2, weight pattern: k=0:3, k=1:4, k=2:5, k=3:1, k=4:2
[TB]   Loaded Filter 3 -> BRAM 3, weight pattern: k=0:4, k=1:5, k=2:1, k=3:2, k=4:3
[TB]   Loaded Filter 4 -> BRAM 4, weight pattern: k=0:5, k=1:1, k=2:2, k=3:3, k=4:4
[TB]   Loaded Filter 5 -> BRAM 5, weight pattern: k=0:1, k=1:2, k=2:3, k=3:4, k=4:5
[TB]   Loaded Filter 6 -> BRAM 6, weight pattern: k=0:2, k=1:3, k=2:4, k=3:5, k=4:1
[TB]   Loaded Filter 7 -> BRAM 7, weight pattern: k=0:3, k=1:4, k=2:5, k=3:1, k=4:2
[TB]   Loaded Filter 8 -> BRAM 8, weight pattern: k=0:4, k=1:5, k=2:1, k=3:2, k=4:3
[TB]   Loaded Filter 9 -> BRAM 9, weight pattern: k=0:5, k=1:1, k=2:2, k=3:3, k=4:4
[TB]   Loaded Filter 10 -> BRAM 10, weight pattern: k=0:1, k=1:2, k=2:3, k=3:4, k=4:5
[TB]   Loaded Filter 11 -> BRAM 11, weight pattern: k=0:2, k=1:3, k=2:4, k=3:5, k=4:1
[TB]   Loaded Filter 12 -> BRAM 12, weight pattern: k=0:3, k=1:4, k=2:5, k=3:1, k=4:2
[TB]   Loaded Filter 13 -> BRAM 13, weight pattern: k=0:4, k=1:5, k=2:1, k=3:2, k=4:3
[TB]   Loaded Filter 14 -> BRAM 14, weight pattern: k=0:5, k=1:1, k=2:2, k=3:3, k=4:4
[TB]   Loaded Filter 15 -> BRAM 15, weight pattern: k=0:1, k=1:2, k=2:3, k=3:4, k=4:5
[TB] Dynamic Weight Load Complete
[TB] Weight loading complete, asserting ack at time             24125000
[TB] Weight Request detected at time             83855000
[TB] Loading Dynamic Weights for Request #1
[TB]   -> Filter Batch 1 (Filters 16-31)
[TB]   -> Channel Block 0 (Channels 0-63)
[TB]     DEBUG: Filter 16, Ch 0, k=0: addr=0, value=2 (to BRAM 0)
[TB]     DEBUG: Filter 16, Ch 0, k=1: addr=1, value=3 (to BRAM 0)
[TB]     DEBUG: Filter 16, Ch 0, k=2: addr=2, value=4 (to BRAM 0)
[TB]   Loaded Filter 16 -> BRAM 0, weight pattern: k=0:2, k=1:3, k=2:4, k=3:5, k=4:1
[TB]   Loaded Filter 17 -> BRAM 1, weight pattern: k=0:3, k=1:4, k=2:5, k=3:1, k=4:2
[TB]   Loaded Filter 18 -> BRAM 2, weight pattern: k=0:4, k=1:5, k=2:1, k=3:2, k=4:3
[TB]   Loaded Filter 19 -> BRAM 3, weight pattern: k=0:5, k=1:1, k=2:2, k=3:3, k=4:4
[TB]   Loaded Filter 20 -> BRAM 4, weight pattern: k=0:1, k=1:2, k=2:3, k=3:4, k=4:5
[TB]   Loaded Filter 21 -> BRAM 5, weight pattern: k=0:2, k=1:3, k=2:4, k=3:5, k=4:1
[TB]   Loaded Filter 22 -> BRAM 6, weight pattern: k=0:3, k=1:4, k=2:5, k=3:1, k=4:2
[TB]   Loaded Filter 23 -> BRAM 7, weight pattern: k=0:4, k=1:5, k=2:1, k=3:2, k=4:3
[TB]   Loaded Filter 24 -> BRAM 8, weight pattern: k=0:5, k=1:1, k=2:2, k=3:3, k=4:4
[TB]   Loaded Filter 25 -> BRAM 9, weight pattern: k=0:1, k=1:2, k=2:3, k=3:4, k=4:5
[TB]   Loaded Filter 26 -> BRAM 10, weight pattern: k=0:2, k=1:3, k=2:4, k=3:5, k=4:1
[TB]   Loaded Filter 27 -> BRAM 11, weight pattern: k=0:3, k=1:4, k=2:5, k=3:1, k=4:2
[TB]   Loaded Filter 28 -> BRAM 12, weight pattern: k=0:4, k=1:5, k=2:1, k=3:2, k=4:3
[TB]   Loaded Filter 29 -> BRAM 13, weight pattern: k=0:5, k=1:1, k=2:2, k=3:3, k=4:4
[TB]   Loaded Filter 30 -> BRAM 14, weight pattern: k=0:1, k=1:2, k=2:3, k=3:4, k=4:5
[TB]   Loaded Filter 31 -> BRAM 15, weight pattern: k=0:2, k=1:3, k=2:4, k=3:5, k=4:1
[TB] Dynamic Weight Load Complete
[TB] Weight loading complete, asserting ack at time             91585000
=== Convolution Complete ===


========================================
  TEST 6 GOLDEN MODEL COMPARISON
========================================

Time 0 Comparison (Verilog vs Golden):
Filter | Verilog | Golden | Difference | Status
-------|---------|--------|------------|-------
   0   |     70  |  8655  |    -8585     | MISMATCH
   1   |     65  |  8655  |    -8590     | MISMATCH
   2   |     70  |  8640  |    -8570     | MISMATCH
   3   |     85  |  8610  |    -8525     | MISMATCH
   4   |     85  |  8640  |    -8555     | MISMATCH
   5   |     70  |  8655  |    -8585     | MISMATCH
   6   |     65  |  8655  |    -8590     | MISMATCH
   7   |     70  |  8640  |    -8570     | MISMATCH
   8   |     85  |  8610  |    -8525     | MISMATCH
   9   |     85  |  8640  |    -8555     | MISMATCH
  10   |     70  |  8655  |    -8585     | MISMATCH
  11   |     65  |  8655  |    -8590     | MISMATCH
  12   |     70  |  8640  |    -8570     | MISMATCH
  13   |     85  |  8610  |    -8525     | MISMATCH
  14   |     85  |  8640  |    -8555     | MISMATCH
  15   |     70  |  8655  |    -8585     | MISMATCH


FAIL: 16 mismatches found at Time 0
========================================


========================================
  OUTPUT RESULTS (Signed Decimal)
========================================
Reading 32 output values for 32 filter(s)...

Time | Filter  0 | Filter  1 | Filter  2 | Filter  3 | Filter  4 | Filter  5 | Filter  6 | Filter  7 | Filter  8 | Filter  9 | Filter 10 | Filter 11 | Filter 12 | Filter 13 | Filter 14 | Filter 15 |
-----|-----------|-----------|-----------|-----------|-----------|-----------|-----------|-----------|-----------|-----------|-----------|-----------|-----------|-----------|-----------|-----------|
   0 |        70 |        65 |        70 |        85 |        85 |        70 |        65 |        70 |        85 |        85 |        70 |        65 |        70 |        85 |        85 |        70 |
   1 |       111 |        92 |        83 |        84 |        95 |       111 |        92 |        83 |        84 |        95 |       111 |        92 |        83 |        84 |        95 |       111 |
   2 |        97 |       103 |       124 |       110 |       106 |        97 |       103 |       124 |       110 |       106 |        97 |       103 |       124 |       110 |       106 |        97 |
   3 |       135 |       120 |       120 |       135 |       165 |       135 |       120 |       120 |       135 |       165 |       135 |       120 |       120 |       135 |       165 |       135 |
   4 |       137 |       169 |       141 |       128 |       130 |       137 |       169 |       141 |       128 |       130 |       137 |       169 |       141 |       128 |       130 |       137 |
   5 |       124 |       128 |       147 |       181 |       155 |       124 |       128 |       147 |       181 |       155 |       124 |       128 |       147 |       181 |       155 |       124 |
   6 |       166 |       137 |       123 |       124 |       140 |       166 |       137 |       123 |       124 |       140 |       166 |       137 |       123 |       124 |       140 |       166 |
   7 |       123 |       141 |       174 |       147 |       135 |       123 |       141 |       174 |       147 |       135 |       123 |       141 |       174 |       147 |       135 |       123 |
   8 |       140 |       130 |       135 |       155 |       190 |       140 |       130 |       135 |       155 |       190 |       140 |       130 |       135 |       155 |       190 |       140 |
   9 |       137 |       169 |       141 |       128 |       130 |       137 |       169 |       141 |       128 |       130 |       137 |       169 |       141 |       128 |       130 |       137 |
  10 |       124 |       128 |       147 |       181 |       155 |       124 |       128 |       147 |       181 |       155 |       124 |       128 |       147 |       181 |       155 |       124 |
  11 |       166 |       137 |       123 |       124 |       140 |       166 |       137 |       123 |       124 |       140 |       166 |       137 |       123 |       124 |       140 |       166 |
  12 |       123 |       141 |       174 |       147 |       135 |       123 |       141 |       174 |       147 |       135 |       123 |       141 |       174 |       147 |       135 |       123 |
  13 |       140 |       130 |       135 |       155 |       190 |       140 |       130 |       135 |       155 |       190 |       140 |       130 |       135 |       155 |       190 |       140 |
  14 |       137 |       169 |       141 |       128 |       130 |       137 |       169 |       141 |       128 |       130 |       137 |       169 |       141 |       128 |       130 |       137 |
  15 |       124 |       128 |       147 |       181 |       155 |       124 |       128 |       147 |       181 |       155 |       124 |       128 |       147 |       181 |       155 |       124 |
  16 |       166 |       137 |       123 |       124 |       140 |       166 |       137 |       123 |       124 |       140 |       166 |       137 |       123 |       124 |       140 |       166 |
  17 |       123 |       141 |       174 |       147 |       135 |       123 |       141 |       174 |       147 |       135 |       123 |       141 |       174 |       147 |       135 |       123 |
  18 |       140 |       130 |       135 |       155 |       190 |       140 |       130 |       135 |       155 |       190 |       140 |       130 |       135 |       155 |       190 |       140 |
  19 |       137 |       169 |       141 |       128 |       130 |       137 |       169 |       141 |       128 |       130 |       137 |       169 |       141 |       128 |       130 |       137 |
  20 |       124 |       128 |       147 |       181 |       155 |       124 |       128 |       147 |       181 |       155 |       124 |       128 |       147 |       181 |       155 |       124 |
  21 |       166 |       137 |       123 |       124 |       140 |       166 |       137 |       123 |       124 |       140 |       166 |       137 |       123 |       124 |       140 |       166 |
  22 |       123 |       141 |       174 |       147 |       135 |       123 |       141 |       174 |       147 |       135 |       123 |       141 |       174 |       147 |       135 |       123 |
  23 |       140 |       130 |       135 |       155 |       190 |       140 |       130 |       135 |       155 |       190 |       140 |       130 |       135 |       155 |       190 |       140 |
  24 |       137 |       169 |       141 |       128 |       130 |       137 |       169 |       141 |       128 |       130 |       137 |       169 |       141 |       128 |       130 |       137 |
  25 |       124 |       128 |       147 |       181 |       155 |       124 |       128 |       147 |       181 |       155 |       124 |       128 |       147 |       181 |       155 |       124 |
  26 |       166 |       137 |       123 |       124 |       140 |       166 |       137 |       123 |       124 |       140 |       166 |       137 |       123 |       124 |       140 |       166 |
  27 |       123 |       141 |       174 |       147 |       135 |       123 |       141 |       174 |       147 |       135 |       123 |       141 |       174 |       147 |       135 |       123 |
  28 |       140 |       130 |       135 |       155 |       190 |       140 |       130 |       135 |       155 |       190 |       140 |       130 |       135 |       155 |       190 |       140 |
  29 |       137 |       169 |       141 |       128 |       130 |       137 |       169 |       141 |       128 |       130 |       137 |       169 |       141 |       128 |       130 |       137 |
  30 |       124 |       128 |       147 |       181 |       155 |       124 |       128 |       147 |       181 |       155 |       124 |       128 |       147 |       181 |       155 |       124 |
  31 |       166 |       137 |       123 |       124 |       140 |       166 |       137 |       123 |       124 |       140 |       166 |       137 |       123 |       124 |       140 |       166 |
========================================

DEBUG: First 5 filter outputs at Time 0:
  Filter 0: 70 (0x46)
  Filter 1: 65 (0x41)
  Filter 2: 70 (0x46)
  Filter 3: 85 (0x55)
  Filter 4: 85 (0x55)



>>> Test 7: Block-based Weight Loading (70 Channels)
    Expect 2 Weight Requests (Batch 0 for Ch 0-63, Batch 1 for Ch 64-69)
Initializing input data: 70 channels, 16 temporal length
  Ch 0 -> BRAM 0, slot 0, addr 0-15, pattern: t=0:1, t=1:2, t=2:3
  Ch 1 -> BRAM 1, slot 0, addr 0-15, pattern: t=0:2, t=1:3, t=2:4
  Ch 2 -> BRAM 2, slot 0, addr 0-15, pattern: t=0:3, t=1:4, t=2:5
  Ch 3 -> BRAM 3, slot 0, addr 0-15, pattern: t=0:4, t=1:5, t=2:1
Input data initialization complete
Initializing bias (clearing output BRAM)...
Bias initialization complete (wrote 64 zeros)

=== Starting Convolution ===
Parameters:
  stride_input=0 (actual_stride=1), padding=0, kernel_size=3
  input_channels=70, temporal_length=16, filters=1
[TB] Weight Request detected at time            188515000
[TB] Loading Dynamic Weights for Request #0
[TB]   -> Filter Batch 0 (Filters 0-0)
[TB]   -> Channel Block 0 (Channels 0-63)
[TB]     DEBUG: Filter 0, Ch 0, k=0: addr=0, value=1 (to BRAM 0)
[TB]     DEBUG: Filter 0, Ch 0, k=1: addr=1, value=2 (to BRAM 0)
[TB]     DEBUG: Filter 0, Ch 0, k=2: addr=2, value=3 (to BRAM 0)
[TB]     DEBUG: Filter 0, Ch 1, k=0: addr=3, value=1 (to BRAM 0)
[TB]     DEBUG: Filter 0, Ch 1, k=1: addr=4, value=2 (to BRAM 0)
[TB]     DEBUG: Filter 0, Ch 1, k=2: addr=5, value=3 (to BRAM 0)
[TB]   Loaded Filter 0 -> BRAM 0, weight pattern: k=0:1, k=1:2, k=2:3, k=3:4, k=4:5
[TB] Dynamic Weight Load Complete
[TB] Weight loading complete, asserting ack at time            194325000
[TB] Weight Request detected at time            402345000
[TB] Loading Dynamic Weights for Request #1
[TB]   -> Filter Batch 0 (Filters 0-0)
[TB]   -> Channel Block 1 (Channels 64-127)
[TB]     DEBUG: Filter 0, Ch 64, k=0: addr=0, value=1 (to BRAM 0)
[TB]     DEBUG: Filter 0, Ch 64, k=1: addr=1, value=2 (to BRAM 0)
[TB]     DEBUG: Filter 0, Ch 64, k=2: addr=2, value=3 (to BRAM 0)
[TB]     DEBUG: Filter 0, Ch 65, k=0: addr=3, value=1 (to BRAM 0)
[TB]     DEBUG: Filter 0, Ch 65, k=1: addr=4, value=2 (to BRAM 0)
[TB]     DEBUG: Filter 0, Ch 65, k=2: addr=5, value=3 (to BRAM 0)
[TB]   Loaded Filter 0 -> BRAM 0, weight pattern: k=0:1, k=1:2, k=2:3, k=3:4, k=4:5
[TB] Dynamic Weight Load Complete
[TB] Weight loading complete, asserting ack at time            402935000
=== Convolution Complete ===


========================================
  OUTPUT RESULTS (Signed Decimal)
========================================
Reading 14 output values for 1 filter(s)...

Time | Filter  0 |
-----|-----------|
   0 |      1260 |
   1 |      1260 |
   2 |      1260 |
   3 |      1260 |
   4 |      1260 |
   5 |      1260 |
   6 |      1260 |
   7 |      1260 |
   8 |      1260 |
   9 |      1260 |
  10 |      1260 |
  11 |      1260 |
  12 |      1260 |
  13 |      1260 |
========================================



>>> Test 8: Large Filter Number (32 Filters)
    Expect 2 Weight Requests (Batch 0 for Filters 0-15, Batch 1 for Filters 16-31)
Initializing input data: 16 channels, 16 temporal length
  Ch 0 -> BRAM 0, slot 0, addr 0-15, pattern: t=0:1, t=1:2, t=2:3
  Ch 1 -> BRAM 1, slot 0, addr 0-15, pattern: t=0:2, t=1:3, t=2:4
  Ch 2 -> BRAM 2, slot 0, addr 0-15, pattern: t=0:3, t=1:4, t=2:5
  Ch 3 -> BRAM 3, slot 0, addr 0-15, pattern: t=0:4, t=1:5, t=2:1
Input data initialization complete
Initializing bias (clearing output BRAM)...
Bias initialization complete (wrote 64 zeros)

=== Starting Convolution ===
Parameters:
  stride_input=2 (actual_stride=2), padding=1, kernel_size=4
  input_channels=16, temporal_length=16, filters=32
[TB] Weight Request detected at time            431755000
[TB] Loading Dynamic Weights for Request #0
[TB]   -> Filter Batch 0 (Filters 0-15)
[TB]   -> Channel Block 0 (Channels 0-63)
[TB]     DEBUG: Filter 0, Ch 0, k=0: addr=0, value=1 (to BRAM 0)
[TB]     DEBUG: Filter 0, Ch 0, k=1: addr=1, value=2 (to BRAM 0)
[TB]     DEBUG: Filter 0, Ch 0, k=2: addr=2, value=3 (to BRAM 0)
[TB]     DEBUG: Filter 0, Ch 1, k=0: addr=4, value=1 (to BRAM 0)
[TB]     DEBUG: Filter 0, Ch 1, k=1: addr=5, value=2 (to BRAM 0)
[TB]     DEBUG: Filter 0, Ch 1, k=2: addr=6, value=3 (to BRAM 0)
[TB]   Loaded Filter 0 -> BRAM 0, weight pattern: k=0:1, k=1:2, k=2:3, k=3:4, k=4:5
[TB]   Loaded Filter 1 -> BRAM 1, weight pattern: k=0:2, k=1:3, k=2:4, k=3:5, k=4:1
[TB]   Loaded Filter 2 -> BRAM 2, weight pattern: k=0:3, k=1:4, k=2:5, k=3:1, k=4:2
[TB]   Loaded Filter 3 -> BRAM 3, weight pattern: k=0:4, k=1:5, k=2:1, k=3:2, k=4:3
[TB]   Loaded Filter 4 -> BRAM 4, weight pattern: k=0:5, k=1:1, k=2:2, k=3:3, k=4:4
[TB]   Loaded Filter 5 -> BRAM 5, weight pattern: k=0:1, k=1:2, k=2:3, k=3:4, k=4:5
[TB]   Loaded Filter 6 -> BRAM 6, weight pattern: k=0:2, k=1:3, k=2:4, k=3:5, k=4:1
[TB]   Loaded Filter 7 -> BRAM 7, weight pattern: k=0:3, k=1:4, k=2:5, k=3:1, k=4:2
[TB]   Loaded Filter 8 -> BRAM 8, weight pattern: k=0:4, k=1:5, k=2:1, k=3:2, k=4:3
[TB]   Loaded Filter 9 -> BRAM 9, weight pattern: k=0:5, k=1:1, k=2:2, k=3:3, k=4:4
[TB]   Loaded Filter 10 -> BRAM 10, weight pattern: k=0:1, k=1:2, k=2:3, k=3:4, k=4:5
[TB]   Loaded Filter 11 -> BRAM 11, weight pattern: k=0:2, k=1:3, k=2:4, k=3:5, k=4:1
[TB]   Loaded Filter 12 -> BRAM 12, weight pattern: k=0:3, k=1:4, k=2:5, k=3:1, k=4:2
[TB]   Loaded Filter 13 -> BRAM 13, weight pattern: k=0:4, k=1:5, k=2:1, k=3:2, k=4:3
[TB]   Loaded Filter 14 -> BRAM 14, weight pattern: k=0:5, k=1:1, k=2:2, k=3:3, k=4:4
[TB]   Loaded Filter 15 -> BRAM 15, weight pattern: k=0:1, k=1:2, k=2:3, k=3:4, k=4:5
[TB] Dynamic Weight Load Complete
[TB] Weight loading complete, asserting ack at time            462525000
[TB] Weight Request detected at time            500485000
[TB] Loading Dynamic Weights for Request #1
[TB]   -> Filter Batch 1 (Filters 16-31)
[TB]   -> Channel Block 0 (Channels 0-63)
[TB]     DEBUG: Filter 16, Ch 0, k=0: addr=0, value=2 (to BRAM 0)
[TB]     DEBUG: Filter 16, Ch 0, k=1: addr=1, value=3 (to BRAM 0)
[TB]     DEBUG: Filter 16, Ch 0, k=2: addr=2, value=4 (to BRAM 0)
[TB]     DEBUG: Filter 16, Ch 1, k=0: addr=4, value=2 (to BRAM 0)
[TB]     DEBUG: Filter 16, Ch 1, k=1: addr=5, value=3 (to BRAM 0)
[TB]     DEBUG: Filter 16, Ch 1, k=2: addr=6, value=4 (to BRAM 0)
[TB]   Loaded Filter 16 -> BRAM 0, weight pattern: k=0:2, k=1:3, k=2:4, k=3:5, k=4:1
[TB]   Loaded Filter 17 -> BRAM 1, weight pattern: k=0:3, k=1:4, k=2:5, k=3:1, k=4:2
[TB]   Loaded Filter 18 -> BRAM 2, weight pattern: k=0:4, k=1:5, k=2:1, k=3:2, k=4:3
[TB]   Loaded Filter 19 -> BRAM 3, weight pattern: k=0:5, k=1:1, k=2:2, k=3:3, k=4:4
[TB]   Loaded Filter 20 -> BRAM 4, weight pattern: k=0:1, k=1:2, k=2:3, k=3:4, k=4:5
[TB]   Loaded Filter 21 -> BRAM 5, weight pattern: k=0:2, k=1:3, k=2:4, k=3:5, k=4:1
[TB]   Loaded Filter 22 -> BRAM 6, weight pattern: k=0:3, k=1:4, k=2:5, k=3:1, k=4:2
[TB]   Loaded Filter 23 -> BRAM 7, weight pattern: k=0:4, k=1:5, k=2:1, k=3:2, k=4:3
[TB]   Loaded Filter 24 -> BRAM 8, weight pattern: k=0:5, k=1:1, k=2:2, k=3:3, k=4:4
[TB]   Loaded Filter 25 -> BRAM 9, weight pattern: k=0:1, k=1:2, k=2:3, k=3:4, k=4:5
[TB]   Loaded Filter 26 -> BRAM 10, weight pattern: k=0:2, k=1:3, k=2:4, k=3:5, k=4:1
[TB]   Loaded Filter 27 -> BRAM 11, weight pattern: k=0:3, k=1:4, k=2:5, k=3:1, k=4:2
[TB]   Loaded Filter 28 -> BRAM 12, weight pattern: k=0:4, k=1:5, k=2:1, k=3:2, k=4:3
[TB]   Loaded Filter 29 -> BRAM 13, weight pattern: k=0:5, k=1:1, k=2:2, k=3:3, k=4:4
[TB]   Loaded Filter 30 -> BRAM 14, weight pattern: k=0:1, k=1:2, k=2:3, k=3:4, k=4:5
[TB]   Loaded Filter 31 -> BRAM 15, weight pattern: k=0:2, k=1:3, k=2:4, k=3:5, k=4:1
[TB] Dynamic Weight Load Complete
[TB] Weight loading complete, asserting ack at time            531255000
=== Convolution Complete ===


========================================
  OUTPUT RESULTS (Signed Decimal)
========================================
Reading 8 output values for 32 filter(s)...

Time | Filter  0 | Filter  1 | Filter  2 | Filter  3 | Filter  4 | Filter  5 | Filter  6 | Filter  7 | Filter  8 | Filter  9 | Filter 10 | Filter 11 | Filter 12 | Filter 13 | Filter 14 | Filter 15 |
-----|-----------|-----------|-----------|-----------|-----------|-----------|-----------|-----------|-----------|-----------|-----------|-----------|-----------|-----------|-----------|-----------|
   0 |       425 |       566 |       467 |       373 |       284 |       425 |       566 |       467 |       373 |       284 |       425 |       566 |       467 |       373 |       284 |       425 |
   1 |       490 |       684 |       628 |       577 |       531 |       490 |       684 |       628 |       577 |       531 |       490 |       684 |       628 |       577 |       531 |       490 |
   2 |       475 |       667 |       624 |       586 |       528 |       475 |       667 |       624 |       586 |       528 |       475 |       667 |       624 |       586 |       528 |       475 |
   3 |       480 |       670 |       615 |       565 |       520 |       480 |       670 |       615 |       565 |       520 |       480 |       670 |       615 |       565 |       520 |       480 |
   4 |       480 |       673 |       636 |       579 |       527 |       480 |       673 |       636 |       579 |       527 |       480 |       673 |       636 |       579 |       527 |       480 |
   5 |       475 |       666 |       617 |       573 |       534 |       475 |       666 |       617 |       573 |       534 |       475 |       666 |       617 |       573 |       534 |       475 |
   6 |       490 |       684 |       628 |       577 |       531 |       490 |       684 |       628 |       577 |       531 |       490 |       684 |       628 |       577 |       531 |       490 |
   7 |       287 |       432 |       577 |       492 |       387 |       287 |       432 |       577 |       492 |       387 |       287 |       432 |       577 |       492 |       387 |       287 |
========================================

DEBUG: First 5 filter outputs at Time 0:
  Filter 0: 425 (0x1a9)
  Filter 1: 566 (0x236)
  Filter 2: 467 (0x1d3)
  Filter 3: 373 (0x175)
  Filter 4: 284 (0x11c)



========================================
  All Tests Complete!
========================================

$finish called at time : 570735 ns : File "D:/SEMESTER1_20252026/VLSI/WGAN-EEG-FPGA/src/AXON/project_1/project_1.srcs/sim_1/new/onedconv_tb.v" Line 958
